<svg width="17" height="18" viewBox="0 0 17 18" fill="none" xmlns="http://www.w3.org/2000/svg">
<path d="M16 9.12712C16 13.199 12.6421 16.5 8.5 16.5C4.35786 16.5 1 13.199 1 9.12712C1 5.05519 4.33333 1.75423 8.5 1.75423C13.5 1.75423 16 5.85028 16 5.85028M16 5.85028L16 1.5M16 5.85028H12.1207" stroke="white" stroke-width="1.5" stroke-linecap="round" stroke-linejoin="round"/>
</svg>
